﻿{
  "RabbitMQ": {
    "HostName": "localhost",
    "Port": 5672,
    "Username": "guest",
    "Password": "guest"
  },

  "Channel": {
    "Exchange": {
      "Name": "ping_pong",
      "Type": "direct"
    },
    "PingQueue": {
      "Name": "ping_queue",
      "Key": "ping"
    },
    "PongQueue": {
      "Name": "pong_queue",
      "Key": "pong"
    }
  }
}
